[
    {
        "particle": "muon",
        "resonance": "JPsi",
        "era": "Run2016",
        "subEra": "Run2016B",
        "probe": "generalTracks",
        "dataTier": "MINIAOD",
        "parquet": ["/cms/muon_pog/parquet/muon/JPsi/Run2016/AOD/Run2016B/tnp.parquet"],
        "root": ["/cms/muon_pog/root/muon/JPsi/Run2016/AOD/Run2016B/*.root"],
        "treename": "muon/Events",
        "luminosity": 5.933,
        "version": 1
    },
    {
        "particle": "muon",
        "resonance": "JPsi",
        "era": "Run2016",
        "subEra": "Run2016C",
        "probe": "generalTracks",
        "dataTier": "MINIAOD",
        "parquet": ["/cms/muon_pog/parquet/muon/JPsi/Run2016/AOD/Run2016C/tnp.parquet"],
        "root": ["/cms/muon_pog/root/muon/JPsi/Run2016/AOD/Run2016C/*.root"],
        "treename": "muon/Events",
        "luminosity": 2.646,
        "version": 1
    },
    {
        "particle": "muon",
        "resonance": "JPsi",
        "era": "Run2016",
        "subEra": "Run2016D",
        "probe": "generalTracks",
        "dataTier": "MINIAOD",
        "parquet": ["/cms/muon_pog/parquet/muon/JPsi/Run2016/AOD/Run2016D/tnp.parquet"],
        "root": ["/cms/muon_pog/root/muon/JPsi/Run2016/AOD/Run2016D/*.root"],
        "treename": "muon/Events",
        "luminosity": 4.353,
        "version": 1
    },
    {
        "particle": "muon",
        "resonance": "JPsi",
        "era": "Run2016",
        "subEra": "Run2016E",
        "probe": "generalTracks",
        "dataTier": "MINIAOD",
        "parquet": ["/cms/muon_pog/parquet/muon/JPsi/Run2016/AOD/Run2016E/tnp.parquet"],
        "root": ["/cms/muon_pog/root/muon/JPsi/Run2016/AOD/Run2016E/*.root"],
        "treename": "muon/Events",
        "luminosity": 4.117,
        "version": 1
    },
    {
        "particle": "muon",
        "resonance": "JPsi",
        "era": "Run2016",
        "subEra": "Run2016F",
        "probe": "generalTracks",
        "dataTier": "MINIAOD",
        "parquet": ["/cms/muon_pog/parquet/muon/JPsi/Run2016/AOD/Run2016F/tnp.parquet"],
        "root": ["/cms/muon_pog/root/muon/JPsi/Run2016/AOD/Run2016F/*.root"],
        "treename": "muon/Events",
        "luminosity": 3.186,
        "version": 1
    },
    {
        "particle": "muon",
        "resonance": "JPsi",
        "era": "Run2016",
        "subEra": "Run2016G",
        "probe": "generalTracks",
        "dataTier": "MINIAOD",
        "parquet": ["/cms/muon_pog/parquet/muon/JPsi/Run2016/AOD/Run2016G/tnp.parquet"],
        "root": ["/cms/muon_pog/root/muon/JPsi/Run2016/AOD/Run2016G/*.root"],
        "treename": "muon/Events",
        "luminosity": 7.721,
        "version": 1
    },
    {
        "particle": "muon",
        "resonance": "JPsi",
        "era": "Run2016",
        "subEra": "Run2016H",
        "probe": "generalTracks",
        "dataTier": "MINIAOD",
        "parquet": ["/cms/muon_pog/parquet/muon/JPsi/Run2016/AOD/Run2016H/tnp.parquet"],
        "root": ["/cms/muon_pog/root/muon/JPsi/Run2016/AOD/Run2016H/*.root"],
        "treename": "muon/Events",
        "luminosity": 8.857,
        "version": 1
    },
    {
        "particle": "muon",
        "resonance": "JPsi",
        "era": "Run2016",
        "subEra": "JPsi_pythia8",
        "probe": "generalTracks",
        "dataTier": "MINIAOD",
        "parquet": ["/cms/muon_pog/parquet/muon/JPsi/Run2016/AOD/JPsi_pythia8/tnp.parquet"],
        "root": ["/cms/muon_pog/root/muon/JPsi/Run2016/AOD/JPsi_pythia8/*.root"],
        "treename": "muon/Events",
        "luminosity": -1,
        "version": 1
    },
    {
        "particle": "muon",
        "resonance": "JPsi",
        "era": "Run2017",
        "subEra": "Run2017B",
        "probe": "generalTracks",
        "dataTier": "MINIAOD",
        "parquet": ["/cms/muon_pog/parquet/muon/JPsi/Run2017/AOD/Run2017B/tnp.parquet"],
        "root": ["/cms/muon_pog/root/muon/JPsi/Run2017/AOD/Run2017B/*.root"],
        "treename": "muon/Events",
        "luminosity": 4.823,
        "version": 1
    },
    {
        "particle": "muon",
        "resonance": "JPsi",
        "era": "Run2017",
        "subEra": "Run2017C",
        "probe": "generalTracks",
        "dataTier": "MINIAOD",
        "parquet": ["/cms/muon_pog/parquet/muon/JPsi/Run2017AOD/Run2017C/tnp.parquet"],
        "root": ["/cms/muon_pog/root/muon/JPsi/Run2017/AOD/Run2017C/*.root"],
        "treename": "muon/Events",
        "luminosity": 9.664,
        "version": 1
    },
    {
        "particle": "muon",
        "resonance": "JPsi",
        "era": "Run2017",
        "subEra": "Run2017D",
        "probe": "generalTracks",
        "dataTier": "MINIAOD",
        "parquet": ["/cms/muon_pog/parquet/muon/JPsi/Run2017/AOD/Run2017D/tnp.parquet"],
        "root": ["/cms/muon_pog/root/muon/JPsi/Run2017/AOD/Run2017D/*.root"],
        "treename": "muon/Events",
        "luminosity": 4.252,
        "version": 1
    },
    {
        "particle": "muon",
        "resonance": "JPsi",
        "era": "Run2017",
        "subEra": "Run2017E",
        "probe": "generalTracks",
        "dataTier": "MINIAOD",
        "parquet": ["/cms/muon_pog/parquet/muon/JPsi/Run2017/AOD/Run2017E/tnp.parquet"],
        "root": ["/cms/muon_pog/root/muon/JPsi/Run2017/AOD/Run2017E/*.root"],
        "treename": "muon/Events",
        "luminosity": 9.278,
        "version": 1
    },
    {
        "particle": "muon",
        "resonance": "JPsi",
        "era": "Run2017",
        "subEra": "Run2017F",
        "probe": "generalTracks",
        "dataTier": "MINIAOD",
        "parquet": ["/cms/muon_pog/parquet/muon/JPsi/Run2017/AOD/Run2017F/tnp.parquet"],
        "root": ["/cms/muon_pog/root/muon/JPsi/Run2017/AOD/Run2017F/*.root"],
        "treename": "muon/Events",
        "luminosity": 13.540,
        "version": 1
    },
    {
        "particle": "muon",
        "resonance": "JPsi",
        "era": "Run2017",
        "subEra": "JPsi_pythia8",
        "probe": "generalTracks",
        "dataTier": "MINIAOD",
        "parquet": ["/cms/muon_pog/parquet/muon/JPsi/Run2017/AOD/JPsi_pythia8/tnp.parquet"],
        "root": ["/cms/muon_pog/root/muon/JPsi/Run2017/AOD/JPsi_pythia8/*.root"],
        "treename": "muon/Events",
        "luminosity": -1,
        "version": 1
    },
    {
        "particle": "muon",
        "resonance": "JPsi",
        "era": "Run2018",
        "subEra": "Run2018A",
        "probe": "generalTracks",
        "dataTier": "MINIAOD",
        "parquet": ["/cms/muon_pog/parquet/muon/JPsi/Run2018/AOD/Run2018A/tnp.parquet"],
        "root": ["/cms/muon_pog/root/muon/JPsi/Run2018/AOD/Run2018A/*.root"],
        "treename": "muon/Events",
        "luminosity": 14.00,
        "version": 1
    },
    {
        "particle": "muon",
        "resonance": "JPsi",
        "era": "Run2018",
        "subEra": "Run2018B",
        "probe": "generalTracks",
        "dataTier": "MINIAOD",
        "parquet": ["/cms/muon_pog/parquet/muon/JPsi/Run2018/AOD/Run2018B/tnp.parquet"],
        "root": ["/cms/muon_pog/root/muon/JPsi/Run2018/AOD/Run2018B/*.root"],
        "treename": "muon/Events",
        "luminosity": 7.10,
        "version": 1
    },
    {
        "particle": "muon",
        "resonance": "JPsi",
        "era": "Run2018",
        "subEra": "Run2018C",
        "probe": "generalTracks",
        "dataTier": "MINIAOD",
        "parquet": ["/cms/muon_pog/parquet/muon/JPsi/Run2018/AOD/Run2018C/tnp.parquet"],
        "root": ["/cms/muon_pog/root/muon/JPsi/Run2018/AOD/Run2018C/*.root"],
        "treename": "muon/Events",
        "luminosity": 6.94,
        "version": 1
    },
    {
        "particle": "muon",
        "resonance": "JPsi",
        "era": "Run2018",
        "subEra": "Run2018D",
        "probe": "generalTracks",
        "dataTier": "MINIAOD",
        "parquet": ["/cms/muon_pog/parquet/muon/JPsi/Run2018/AOD/Run2018D/tnp.parquet"],
        "root": ["/cms/muon_pog/root/muon/JPsi/Run2018/AOD/Run2018D/*.root"],
        "treename": "muon/Events",
        "luminosity": 31.93,
        "version": 1
    },
    {
        "particle": "muon",
        "resonance": "JPsi",
        "era": "Run2018",
        "subEra": "JPsi_pythia8",
        "probe": "generalTracks",
        "dataTier": "MINIAOD",
        "parquet": ["/cms/muon_pog/parquet/muon/JPsi/Run2018/AOD/JPsi_pythia8/tnp.parquet"],
        "root": ["/cms/muon_pog/root/muon/JPsi/Run2018/AOD/JPsi_pythia8/*.root"],
        "treename": "muon/Events",
        "luminosity": -1,
        "version": 1
    },
    {
        "particle": "muon",
        "resonance": "JPsi",
        "era": "Run2016_UL_HIPM",
        "subEra": "Run2016B",
        "probe": "generalTracks",
        "dataTier": "MINIAOD",
        "parquet": ["/cms/muon_pog/parquet/muon/JPsi/Run2016_UL_HIPM/MINIAOD/Run2016B/tnp.parquet"],
        "root": ["/cms/muon_pog/root/muon/JPsi/Run2016_UL_HIPM/MINIAOD/Run2016B/*.root"],
        "treename": "muon/Events",
        "luminosity": 5.933,
        "version": 1
    },
    {
        "particle": "muon",
        "resonance": "JPsi",
        "era": "Run2016_UL_HIPM",
        "subEra": "Run2016C",
        "probe": "generalTracks",
        "dataTier": "MINIAOD",
        "parquet": ["/cms/muon_pog/parquet/muon/JPsi/Run2016_UL_HIPM/MINIAOD/Run2016C/tnp.parquet"],
        "root": ["/cms/muon_pog/root/muon/JPsi/Run2016_UL_HIPM/MINIAOD/Run2016C/*.root"],
        "treename": "muon/Events",
        "luminosity": 2.646,
        "version": 1
    },
    {
        "particle": "muon",
        "resonance": "JPsi",
        "era": "Run2016_UL_HIPM",
        "subEra": "Run2016D",
        "probe": "generalTracks",
        "dataTier": "MINIAOD",
        "parquet": ["/cms/muon_pog/parquet/muon/JPsi/Run2016_UL_HIPM/MINIAOD/Run2016D/tnp.parquet"],
        "root": ["/cms/muon_pog/root/muon/JPsi/Run2016_UL_HIPM/MINIAOD/Run2016D/*.root"],
        "treename": "muon/Events",
        "luminosity": 4.353,
        "version": 1
    },
    {
        "particle": "muon",
        "resonance": "JPsi",
        "era": "Run2016_UL_HIPM",
        "subEra": "Run2016E",
        "probe": "generalTracks",
        "dataTier": "MINIAOD",
        "parquet": ["/cms/muon_pog/parquet/muon/JPsi/Run2016_UL_HIPM/MINIAOD/Run2016E/tnp.parquet"],
        "root": ["/cms/muon_pog/root/muon/JPsi/Run2016_UL_HIPM/MINIAOD/Run2016E/*.root"],
        "treename": "muon/Events",
        "luminosity": 4.117,
        "version": 1
    },
    {
        "particle": "muon",
        "resonance": "JPsi",
        "era": "Run2016_UL_HIPM",
        "subEra": "Run2016F",
        "probe": "generalTracks",
        "dataTier": "MINIAOD",
        "parquet": ["/cms/muon_pog/parquet/muon/JPsi/Run2016_UL_HIPM/MINIAOD/Run2016F/tnp.parquet"],
        "root": ["/cms/muon_pog/root/muon/JPsi/Run2016_UL_HIPM/MINIAOD/Run2016F/*.root"],
        "treename": "muon/Events",
        "luminosity": 3.186,
        "version": 1
    },
    {
        "particle": "muon",
        "resonance": "JPsi",
        "era": "Run2016_UL_HIPM",
        "subEra": "JPsi_pythia8",
        "probe": "generalTracks",
        "dataTier": "MINIAOD",
        "parquet": ["/cms/muon_pog/parquet/muon/JPsi/Run2016_UL_HIPM/MINIAOD/JPsi_pythia8/tnp.parquet"],
        "root": ["/cms/muon_pog/root/muon/JPsi/Run2016_UL_HIPM/MINIAOD/JPsi_pythia8/*.root"],
        "treename": "muon/Events",
        "luminosity": -1,
        "version": 1
    },
    {
        "particle": "muon",
        "resonance": "JPsi",
        "era": "Run2016_UL",
        "subEra": "Run2016F",
        "probe": "generalTracks",
        "dataTier": "MINIAOD",
        "parquet": ["/cms/muon_pog/parquet/muon/JPsi/Run2016_UL/MINIAOD/Run2016F/tnp.parquet"],
        "root": ["/cms/muon_pog/root/muon/JPsi/Run2016_UL/MINIAOD/Run2016F/*.root"],
        "treename": "muon/Events",
        "luminosity": 0,
        "version": 1
    },
    {
        "particle": "muon",
        "resonance": "JPsi",
        "era": "Run2016_UL",
        "subEra": "Run2016G",
        "probe": "generalTracks",
        "dataTier": "MINIAOD",
        "parquet": ["/cms/muon_pog/parquet/muon/JPsi/Run2016_UL/MINIAOD/Run2016G/tnp.parquet"],
        "root": ["/cms/muon_pog/root/muon/JPsi/Run2016_UL/MINIAOD/Run2016G/*.root"],
        "treename": "muon/Events",
        "luminosity": 7.721,
        "version": 1
    },
    {
        "particle": "muon",
        "resonance": "JPsi",
        "era": "Run2016_UL",
        "subEra": "Run2016H",
        "probe": "generalTracks",
        "dataTier": "MINIAOD",
        "parquet": ["/cms/muon_pog/parquet/muon/JPsi/Run2016_UL/MINIAOD/Run2016H/tnp.parquet"],
        "root": ["/cms/muon_pog/root/muon/JPsi/Run2016_UL/MINIAOD/Run2016H/*.root"],
        "treename": "muon/Events",
        "luminosity": 8.857,
        "version": 1
    },
    {
        "particle": "muon",
        "resonance": "JPsi",
        "era": "Run2016_UL",
        "subEra": "JPsi_pythia8",
        "probe": "generalTracks",
        "dataTier": "MINIAOD",
        "parquet": ["/cms/muon_pog/parquet/muon/JPsi/Run2016_UL/MINIAOD/JPsi_pythia8/tnp.parquet"],
        "root": ["/cms/muon_pog/root/muon/JPsi/Run2016_UL/MINIAOD/JPsi_pythia8/*.root"],
        "treename": "muon/Events",
        "luminosity": -1,
        "version": 1
    },
    {
        "particle": "muon",
        "resonance": "JPsi",
        "era": "Run2017_UL",
        "subEra": "Run2017B",
        "probe": "generalTracks",
        "dataTier": "MINIAOD",
        "parquet": ["/cms/muon_pog/parquet/muon/JPsi/Run2017_UL/MINIAOD/Run2017B/tnp.parquet"],
        "root": ["/cms/muon_pog/root/muon/JPsi/Run2017_UL/MINIAOD/Run2017B/*.root"],
        "treename": "muon/Events",
        "luminosity": 4.823,
        "version": 1
    },
    {
        "particle": "muon",
        "resonance": "JPsi",
        "era": "Run2017_UL",
        "subEra": "Run2017C",
        "probe": "generalTracks",
        "dataTier": "MINIAOD",
        "parquet": ["/cms/muon_pog/parquet/muon/JPsi/Run2017_UL/MINIAOD/Run2017C/tnp.parquet"],
        "root": ["/cms/muon_pog/root/muon/JPsi/Run2017_UL/MINIAOD/Run2017C/*.root"],
        "treename": "muon/Events",
        "luminosity": 9.664,
        "version": 1
    },
    {
        "particle": "muon",
        "resonance": "JPsi",
        "era": "Run2017_UL",
        "subEra": "Run2017D",
        "probe": "generalTracks",
        "dataTier": "MINIAOD",
        "parquet": ["/cms/muon_pog/parquet/muon/JPsi/Run2017_UL/MINIAOD/Run2017D/tnp.parquet"],
        "root": ["/cms/muon_pog/root/muon/JPsi/Run2017_UL/MINIAOD/Run2017D/*.root"],
        "treename": "muon/Events",
        "luminosity": 4.252,
        "version": 1
    },
    {
        "particle": "muon",
        "resonance": "JPsi",
        "era": "Run2017_UL",
        "subEra": "Run2017E",
        "probe": "generalTracks",
        "dataTier": "MINIAOD",
        "parquet": ["/cms/muon_pog/parquet/muon/JPsi/Run2017_UL/MINIAOD/Run2017E/tnp.parquet"],
        "root": ["/cms/muon_pog/root/muon/JPsi/Run2017_UL/MINIAOD/Run2017E/*.root"],
        "treename": "muon/Events",
        "luminosity": 9.278,
        "version": 1
    },
    {
        "particle": "muon",
        "resonance": "JPsi",
        "era": "Run2017_UL",
        "subEra": "Run2017F",
        "probe": "generalTracks",
        "dataTier": "MINIAOD",
        "parquet": ["/cms/muon_pog/parquet/muon/JPsi/Run2017_UL/MINIAOD/Run2017F/tnp.parquet"],
        "root": ["/cms/muon_pog/root/muon/JPsi/Run2017_UL/MINIAOD/Run2017F/*.root"],
        "treename": "muon/Events",
        "luminosity": 13.540,
        "version": 1
    },
    {
        "particle": "muon",
        "resonance": "JPsi",
        "era": "Run2017_UL",
        "subEra": "JPsi_pythia8",
        "probe": "generalTracks",
        "dataTier": "MINIAOD",
        "parquet": ["/cms/muon_pog/parquet/muon/JPsi/Run2017_UL/MINIAOD/JPsi_pythia8/tnp.parquet"],
        "root": ["/cms/muon_pog/root/muon/JPsi/Run2017_UL/MINIAOD/JPsi_pythia8/*.root"],
        "treename": "muon/Events",
        "luminosity": -1,
        "version": 1
    },
    {
        "particle": "muon",
        "resonance": "JPsi",
        "era": "Run2018_UL",
        "subEra": "Run2018A",
        "probe": "generalTracks",
        "dataTier": "MINIAOD",
        "parquet": ["/cms/muon_pog/parquet/muon/JPsi/Run2018_UL/MINIAOD/Run2018A/tnp.parquet"],
        "root": ["/cms/muon_pog/root/muon/JPsi/Run2018_UL/MINIAOD/Run2018A/*.root"],
        "treename": "muon/Events",
        "luminosity": 14.00,
        "version": 1
    },
    {
        "particle": "muon",
        "resonance": "JPsi",
        "era": "Run2018_UL",
        "subEra": "Run2018B",
        "probe": "generalTracks",
        "dataTier": "MINIAOD",
        "parquet": ["/cms/muon_pog/parquet/muon/JPsi/Run2018_UL/MINIAOD/Run2018B/tnp.parquet"],
        "root": ["/cms/muon_pog/root/muon/JPsi/Run2018_UL/MINIAOD/Run2018B/*.root"],
        "treename": "muon/Events",
        "luminosity": 7.10,
        "version": 1
    },
    {
        "particle": "muon",
        "resonance": "JPsi",
        "era": "Run2018_UL",
        "subEra": "Run2018C",
        "probe": "generalTracks",
        "dataTier": "MINIAOD",
        "parquet": ["/cms/muon_pog/parquet/muon/JPsi/Run2018_UL/MINIAOD/Run2018C/tnp.parquet"],
        "root": ["/cms/muon_pog/root/muon/JPsi/Run2018_UL/MINIAOD/Run2018C/*.root"],
        "treename": "muon/Events",
        "luminosity": 6.94,
        "version": 1
    },
    {
        "particle": "muon",
        "resonance": "JPsi",
        "era": "Run2018_UL",
        "subEra": "Run2018D",
        "probe": "generalTracks",
        "dataTier": "MINIAOD",
        "parquet": ["/cms/muon_pog/parquet/muon/JPsi/Run2018_UL/MINIAOD/Run2018D/tnp.parquet"],
        "root": ["/cms/muon_pog/root/muon/JPsi/Run2018_UL/MINIAOD/Run2018D/*.root"],
        "treename": "muon/Events",
        "luminosity": 31.93,
        "version": 1
    },
    {
        "particle": "muon",
        "resonance": "JPsi",
        "era": "Run2018_UL",
        "subEra": "JPsi_pythia8",
        "probe": "generalTracks",
        "dataTier": "MINIAOD",
        "parquet": ["/cms/muon_pog/parquet/muon/JPsi/Run2018_UL/MINIAOD/JPsi_pythia8/tnp.parquet"],
        "root": ["/cms/muon_pog/root/muon/JPsi/Run2018_UL/MINIAOD/JPsi_pythia8/*.root"],
        "treename": "muon/Events",
        "luminosity": -1,
        "version": 1
    },
    {
        "particle": "muon",
        "resonance": "JPsi",
        "era": "Run2022",
        "subEra": "Run2022B",
        "probe": "generalTracks",
        "dataTier": "MINIAOD",
        "parquet": ["/cms/muon_pog/parquet/muon/JPsi/Run2022_Oct23/MINIAOD/Run2022B/tnp.parquet"],
        "root": ["/cms/muon_pog/root/muon/JPsi/Run2022_Oct23/MINIAOD/Run2022B/*.root"],
        "treename": "muon/Events",
        "luminosity": 0.09,
        "version": 1
    },
    {
        "particle": "muon",
        "resonance": "JPsi",
        "era": "Run2022",
        "subEra": "Run2022C",
        "probe": "generalTracks",
        "dataTier": "MINIAOD",
        "parquet": ["/cms/muon_pog/parquet/muon/JPsi/Run2022_Oct23/MINIAOD/Run2022C/tnp.parquet"],
        "root": ["/cms/muon_pog/root/muon/JPsi/Run2022_Oct23/MINIAOD/Run2022C/*.root"],
        "treename": "muon/Events",
        "luminosity": 5.07,
        "version": 1
    },
    {
        "particle": "muon",
        "resonance": "JPsi",
        "era": "Run2022",
        "subEra": "Run2022D",
        "probe": "generalTracks",
        "dataTier": "MINIAOD",
        "parquet": ["/cms/muon_pog/parquet/muon/JPsi/Run2022_Oct23/MINIAOD/Run2022D/tnp.parquet"],
        "root": ["/cms/muon_pog/root/muon/JPsi/Run2022_Oct23/MINIAOD/Run2022D/*.root"],
        "treename": "muon/Events",
        "luminosity": 3.01,
        "version": 1
    },
    {
        "particle": "muon",
        "resonance": "JPsi",
        "era": "Run2022",
        "subEra": "JPsi_pythia8",
        "probe": "generalTracks",
        "dataTier": "MINIAOD",
        "parquet": ["/cms/muon_pog/parquet/muon/JPsi/Run2022_Oct23/MINIAOD/JPsi_pythia8/tnp.parquet"],
        "root": ["/cms/muon_pog/root/muon/JPsi/Run2022_Oct23/MINIAOD/JPsi_pythia8/*.root"],
        "treename": "muon/Events",
        "luminosity": -1,
        "version": 1
    },
    {
        "particle": "muon",
        "resonance": "JPsi",
        "era": "Run2022_EE",
        "subEra": "Run2022E",
        "probe": "generalTracks",
        "dataTier": "MINIAOD",
        "parquet": ["/cms/muon_pog/parquet/muon/JPsi/Run2022_EE_Oct23/MINIAOD/Run2022E/tnp.parquet"],
        "root": ["/cms/muon_pog/root/muon/JPsi/Run2022_EE_Oct23/MINIAOD/Run2022E/*.root"],
        "treename": "muon/Events",
        "luminosity": 5.87,
        "version": 1
    },
    {
        "particle": "muon",
        "resonance": "JPsi",
        "era": "Run2022_EE",
        "subEra": "Run2022F",
        "probe": "generalTracks",
        "dataTier": "MINIAOD",
        "parquet": ["/cms/muon_pog/parquet/muon/JPsi/Run2022_EE_Oct23/MINIAOD/Run2022F/tnp.parquet"],
        "root": ["/cms/muon_pog/root/muon/JPsi/Run2022_EE_Oct23/MINIAOD/Run2022F/*.root"],
        "treename": "muon/Events",
        "luminosity": 18.01,
        "version": 1
    },
    {
        "particle": "muon",
        "resonance": "JPsi",
        "era": "Run2022_EE",
        "subEra": "Run2022G",
        "probe": "generalTracks",
        "dataTier": "MINIAOD",
        "parquet": ["/cms/muon_pog/parquet/muon/JPsi/Run2022_EE_Oct23/MINIAOD/Run2022G/tnp.parquet"],
        "root": ["/cms/muon_pog/root/muon/JPsi/Run2022_EE_Oct23/MINIAOD/Run2022G/*.root"],
        "treename": "muon/Events",
        "luminosity": 3.12,
        "version": 1
    },
    {
        "particle": "muon",
        "resonance": "JPsi",
        "era": "Run2022_EE",
        "subEra": "JPsi_pythia8",
        "probe": "generalTracks",
        "dataTier": "MINIAOD",
        "parquet": ["/cms/muon_pog/parquet/muon/JPsi/Run2022_EE_Oct23/MINIAOD/JPsi_pythia8/tnp.parquet"],
        "root": ["/cms/muon_pog/root/muon/JPsi/Run2022_EE_Oct23/MINIAOD/JPsi_pythia8/*.root"],
        "treename": "muon/Events",
        "luminosity": -1,
        "version": 1
    },
    {
        "particle": "muon",
        "resonance": "JPsi",
        "era": "Run2023",
        "subEra": "Run2023B",
        "probe": "generalTracks",
        "dataTier": "MINIAOD",
        "parquet": ["/cms/muon_pog/parquet/muon/JPsi/Run2023_Oct23/MINIAOD/Run2023B/tnp.parquet"],
        "root": ["/cms/muon_pog/root/muon/JPsi/Run2023_Oct23/MINIAOD/Run2023B/*.root"],
        "treename": "muon/Events",
        "luminosity": 0.62,
        "version": 1
    },
    {
        "particle": "muon",
        "resonance": "JPsi",
        "era": "Run2023",
        "subEra": "Run2023C",
        "probe": "generalTracks",
        "dataTier": "MINIAOD",
        "parquet": ["/cms/muon_pog/parquet/muon/JPsi/Run2023_Oct23/MINIAOD/Run2023C/tnp.parquet"],
        "root": ["/cms/muon_pog/root/muon/JPsi/Run2023_Oct23/MINIAOD/Run2023C/*.root"],
        "treename": "muon/Events",
        "luminosity": 17.06,
        "version": 1
    },
    {
        "particle": "muon",
        "resonance": "JPsi",
        "era": "Run2023",
        "subEra": "JPsi_pythia8",
        "probe": "generalTracks",
        "dataTier": "MINIAOD",
        "parquet": ["/cms/muon_pog/parquet/muon/JPsi/Run2023_Oct23/MINIAOD/JPsi_pythia8/tnp.parquet"],
        "root": ["/cms/muon_pog/root/muon/JPsi/Run2023_Oct23/MINIAOD/JPsi_pythia8/*.root"],
        "treename": "muon/Events",
        "luminosity": -1,
        "version": 1
    },
    {
        "particle": "muon",
        "resonance": "JPsi",
        "era": "Run2023_BPix",
        "subEra": "Run2023D",
        "probe": "generalTracks",
        "dataTier": "MINIAOD",
        "parquet": ["/cms/muon_pog/parquet/muon/JPsi/Run2023_Oct23_BPix/MINIAOD/Run2023D/tnp.parquet"],
        "root": ["/cms/muon_pog/root/muon/JPsi/Run2023_Oct23_BPix/MINIAOD/Run2023D/*.root"],
        "treename": "muon/Events",
        "luminosity": 9.53,
        "version": 1
    },
    {
        "particle": "muon",
        "resonance": "JPsi",
        "era": "Run2023_BPix",
        "subEra": "JPsi_pythia8",
        "probe": "generalTracks",
        "dataTier": "MINIAOD",
        "parquet": ["/cms/muon_pog/parquet/muon/JPsi/Run2023_Oct23_BPix/MINIAOD/JPsi_pythia8/tnp.parquet"],
        "root": ["/cms/muon_pog/root/muon/JPsi/Run2023_Oct23_BPix/MINIAOD/JPsi_pythia8/*.root"],
        "treename": "muon/Events",
        "luminosity": -1,
        "version": 1
    }
]
